Project 1
…
Selecting the required columns with select() from dplyr. Selecting the columns Area_name, STCOU and columns ending with “D” (using ends_with()). Renaming Area_name to area_name with mutate() .

file_1_selected <- file_1 |>
  mutate(area_name = Area_name) |>
  select(area_name,STCOU,ends_with("D"))

file_1_selected 

# A tibble: 3,198 × 12
   area_name     STCOU EDU010187D EDU010188D EDU010189D EDU010190D EDU010191D
   <chr>         <chr>      <dbl>      <dbl>      <dbl>      <dbl>      <dbl>
 1 UNITED STATES 00000   40024299   39967624   40317775   40737600   41385442
 2 ALABAMA       01000     733735     728234     730048     728252     725541
 3 Autauga, AL   01001       6829       6900       6920       6847       7008
 4 Baldwin, AL   01003      16417      16465      16799      17054      17479
 5 Barbour, AL   01005       5071       5098       5068       5156       5173
 6 Bibb, AL      01007       3557       3508       3571       3621       3652
 7 Blount, AL    01009       7319       7223       7205       7209       7155
 8 Bullock, AL   01011       2014       1980       1985       1983       1985
 9 Butler, AL    01013       4640       4582       4610       4591       4544
10 Calhoun, AL   01015      20939      20923      20907      20849      20768
# ℹ 3,188 more rows
# ℹ 5 more variables: EDU010192D <dbl>, EDU010193D <dbl>, EDU010194D <dbl>,
#   EDU010195D <dbl>, EDU010196D <dbl>

Convert the data into long format where each row has only one enrollment value for that Area_name.

file_1_long <- file_1_selected %>%
  pivot_longer(
    cols = ends_with("D"),
    names_to = "Enrollment", 
    values_to = "Value"
  )

file_1_long

# A tibble: 31,980 × 4
   area_name     STCOU Enrollment    Value
   <chr>         <chr> <chr>         <dbl>
 1 UNITED STATES 00000 EDU010187D 40024299
 2 UNITED STATES 00000 EDU010188D 39967624
 3 UNITED STATES 00000 EDU010189D 40317775
 4 UNITED STATES 00000 EDU010190D 40737600
 5 UNITED STATES 00000 EDU010191D 41385442
 6 UNITED STATES 00000 EDU010192D 42088151
 7 UNITED STATES 00000 EDU010193D 42724710
 8 UNITED STATES 00000 EDU010194D 43369917
 9 UNITED STATES 00000 EDU010195D 43993459
10 UNITED STATES 00000 EDU010196D 44715737
# ℹ 31,970 more rows

Based on the schema, the enrollment column is formatted to extract a substring consisting of the 8th and 9th characters, representing the year. This substring extraction is vectorized using substr() within mutate(). Next, depending on whether the extracted year value is greater than 24, “200” or “19” is prefixed to the string using if_else(). Finally, the result is coerced to a numeric format using as.numeric().

file_1_formatted <- file_1_long |>
  mutate(year = as.numeric(substr(x =as.character(Enrollment),start = 8,stop = 9 )))|>
  mutate(year = if_else(condition = year>24,
                        true = paste("19",as.character(year),sep = "") ,
                        false = paste("200",as.character(year),sep = ""))) |>
  mutate(year = as.numeric(year))
file_1_formatted

# A tibble: 31,980 × 5
   area_name     STCOU Enrollment    Value  year
   <chr>         <chr> <chr>         <dbl> <dbl>
 1 UNITED STATES 00000 EDU010187D 40024299  1987
 2 UNITED STATES 00000 EDU010188D 39967624  1988
 3 UNITED STATES 00000 EDU010189D 40317775  1989
 4 UNITED STATES 00000 EDU010190D 40737600  1990
 5 UNITED STATES 00000 EDU010191D 41385442  1991
 6 UNITED STATES 00000 EDU010192D 42088151  1992
 7 UNITED STATES 00000 EDU010193D 42724710  1993
 8 UNITED STATES 00000 EDU010194D 43369917  1994
 9 UNITED STATES 00000 EDU010195D 43993459  1995
10 UNITED STATES 00000 EDU010196D 44715737  1996
# ℹ 31,970 more rows

Selecting rows in file_1_formatted where the area_name column contains a pattern matching “, \w\w”, and storing the result to f1_county.

f1_county <- file_1_formatted[grep(pattern = ", \\w\\w", file_1_formatted$area_name,invert = FALSE),]
f1_county

# A tibble: 31,450 × 5
   area_name   STCOU Enrollment Value  year
   <chr>       <chr> <chr>      <dbl> <dbl>
 1 Autauga, AL 01001 EDU010187D  6829  1987
 2 Autauga, AL 01001 EDU010188D  6900  1988
 3 Autauga, AL 01001 EDU010189D  6920  1989
 4 Autauga, AL 01001 EDU010190D  6847  1990
 5 Autauga, AL 01001 EDU010191D  7008  1991
 6 Autauga, AL 01001 EDU010192D  7137  1992
 7 Autauga, AL 01001 EDU010193D  7152  1993
 8 Autauga, AL 01001 EDU010194D  7381  1994
 9 Autauga, AL 01001 EDU010195D  7568  1995
10 Autauga, AL 01001 EDU010196D  7834  1996
# ℹ 31,440 more rows

Selecting rows in file_1_formatted where the area_name column does not contain a pattern matching “, \w\w”, and storing the result to f1_county. This was performed by setting the invert argument to be TRUE .

f1_not_county <- file_1_formatted[grep(pattern = ", \\w\\w", file_1_formatted$area_name,invert = TRUE),]
f1_not_county

# A tibble: 530 × 5
   area_name     STCOU Enrollment    Value  year
   <chr>         <chr> <chr>         <dbl> <dbl>
 1 UNITED STATES 00000 EDU010187D 40024299  1987
 2 UNITED STATES 00000 EDU010188D 39967624  1988
 3 UNITED STATES 00000 EDU010189D 40317775  1989
 4 UNITED STATES 00000 EDU010190D 40737600  1990
 5 UNITED STATES 00000 EDU010191D 41385442  1991
 6 UNITED STATES 00000 EDU010192D 42088151  1992
 7 UNITED STATES 00000 EDU010193D 42724710  1993
 8 UNITED STATES 00000 EDU010194D 43369917  1994
 9 UNITED STATES 00000 EDU010195D 43993459  1995
10 UNITED STATES 00000 EDU010196D 44715737  1996
# ℹ 520 more rows

Assigning the class county to f1_county and class state to f1_not_county. This will be used for making class specific functions later.

class(f1_county) <- c("county", class(f1_county))
class(f1_not_county) <- c("state", class(f1_not_county))

Determining the state for the county data set by extracting the last to characters from the area_name observations using substr() . The character index (required for start= and stop= argument) in the character string is determined using nchar() .

f1_county <- f1_county |>
  mutate(state = substr(area_name, start = nchar(area_name) - 1, stop = nchar(area_name)))

f1_county

# A tibble: 31,450 × 6
   area_name   STCOU Enrollment Value  year state
   <chr>       <chr> <chr>      <dbl> <dbl> <chr>
 1 Autauga, AL 01001 EDU010187D  6829  1987 AL   
 2 Autauga, AL 01001 EDU010188D  6900  1988 AL   
 3 Autauga, AL 01001 EDU010189D  6920  1989 AL   
 4 Autauga, AL 01001 EDU010190D  6847  1990 AL   
 5 Autauga, AL 01001 EDU010191D  7008  1991 AL   
 6 Autauga, AL 01001 EDU010192D  7137  1992 AL   
 7 Autauga, AL 01001 EDU010193D  7152  1993 AL   
 8 Autauga, AL 01001 EDU010194D  7381  1994 AL   
 9 Autauga, AL 01001 EDU010195D  7568  1995 AL   
10 Autauga, AL 01001 EDU010196D  7834  1996 AL   
# ℹ 31,440 more rows
…
# Vectorizing the function to apply to a column of states
f1_not_county <- f1_not_county |>
  mutate(division = sapply(area_name, division))
f1_not_county

# A tibble: 530 × 6
   area_name     STCOU Enrollment    Value  year division
   <chr>         <chr> <chr>         <dbl> <dbl> <chr>   
 1 UNITED STATES 00000 EDU010187D 40024299  1987 ERROR   
 2 UNITED STATES 00000 EDU010188D 39967624  1988 ERROR   
 3 UNITED STATES 00000 EDU010189D 40317775  1989 ERROR   
 4 UNITED STATES 00000 EDU010190D 40737600  1990 ERROR   
 5 UNITED STATES 00000 EDU010191D 41385442  1991 ERROR   
 6 UNITED STATES 00000 EDU010192D 42088151  1992 ERROR   
 7 UNITED STATES 00000 EDU010193D 42724710  1993 ERROR   
 8 UNITED STATES 00000 EDU010194D 43369917  1994 ERROR   
 9 UNITED STATES 00000 EDU010195D 43993459  1995 ERROR   
10 UNITED STATES 00000 EDU010196D 44715737  1996 ERROR   
# ℹ 520 more rows
…
  file_long <- file_selected |>
    pivot_longer(
      cols = ends_with(value_column_pattern),
      names_to = "Enrollment",
      values_to = "Value"
    )
  
  return(file_long)
}

result1 <- function_for_step_1_2(file_2, value_column_pattern = "D")
result1 #Preview

# A tibble: 31,980 × 4
   area_name     STCOU Enrollment    Value
   <chr>         <chr> <chr>         <dbl>
 1 UNITED STATES 00000 EDU010197D 44534459
 2 UNITED STATES 00000 EDU010198D 46245814
 3 UNITED STATES 00000 EDU010199D 46368903
 4 UNITED STATES 00000 EDU010200D 46818690
 5 UNITED STATES 00000 EDU010201D 47127066
 6 UNITED STATES 00000 EDU010202D 47606570
 7 UNITED STATES 00000 EDU015203D 48506317
 8 UNITED STATES 00000 EDU015204D 48693287
 9 UNITED STATES 00000 EDU015205D 48978555
10 UNITED STATES 00000 EDU015206D 49140702
# ℹ 31,970 more rows
…
function_for_step_3 <- function(indata) {
  file_formatted <- indata %>%
    mutate(year = as.numeric(substr(x = as.character(Enrollment), start = 8, stop = 9))) %>%
    mutate(year = if_else(condition = year > 24,
                          true = paste("19", as.character(year), sep = ""),
                          false = paste("200", as.character(year), sep = ""))) %>%
    mutate(year = as.numeric(year))
  
  return(file_formatted)
}
formatted_result <- function_for_step_3(result1)
formatted_result

# A tibble: 31,980 × 5
   area_name     STCOU Enrollment    Value  year
   <chr>         <chr> <chr>         <dbl> <dbl>
 1 UNITED STATES 00000 EDU010197D 44534459  1997
 2 UNITED STATES 00000 EDU010198D 46245814  1998
 3 UNITED STATES 00000 EDU010199D 46368903  1999
 4 UNITED STATES 00000 EDU010200D 46818690  2000
 5 UNITED STATES 00000 EDU010201D 47127066  2001
 6 UNITED STATES 00000 EDU010202D 47606570  2002
 7 UNITED STATES 00000 EDU015203D 48506317  2003
 8 UNITED STATES 00000 EDU015204D 48693287  2004
 9 UNITED STATES 00000 EDU015205D 48978555  2005
10 UNITED STATES 00000 EDU015206D 49140702  2006
# ℹ 31,970 more rows
…
res1

$f_county
# A tibble: 31,450 × 6
   area_name   STCOU Enrollment Value  year state
   <chr>       <chr> <chr>      <dbl> <dbl> <chr>
 1 Autauga, AL 01001 EDU010197D  8099  1997 AL   
 2 Autauga, AL 01001 EDU010198D  8211  1998 AL   
 3 Autauga, AL 01001 EDU010199D  8489  1999 AL   
 4 Autauga, AL 01001 EDU010200D  8912  2000 AL   
 5 Autauga, AL 01001 EDU010201D  8626  2001 AL   
 6 Autauga, AL 01001 EDU010202D  8762  2002 AL   
 7 Autauga, AL 01001 EDU015203D  9105  2003 AL   
 8 Autauga, AL 01001 EDU015204D  9200  2004 AL   
 9 Autauga, AL 01001 EDU015205D  9559  2005 AL   
10 Autauga, AL 01001 EDU015206D  9652  2006 AL   
# ℹ 31,440 more rows

$f_not_county
# A tibble: 530 × 6
   area_name     STCOU Enrollment    Value  year division
   <chr>         <chr> <chr>         <dbl> <dbl> <chr>   
 1 UNITED STATES 00000 EDU010197D 44534459  1997 ERROR   
 2 UNITED STATES 00000 EDU010198D 46245814  1998 ERROR   
 3 UNITED STATES 00000 EDU010199D 46368903  1999 ERROR   
 4 UNITED STATES 00000 EDU010200D 46818690  2000 ERROR   
 5 UNITED STATES 00000 EDU010201D 47127066  2001 ERROR   
 6 UNITED STATES 00000 EDU010202D 47606570  2002 ERROR   
 7 UNITED STATES 00000 EDU015203D 48506317  2003 ERROR   
 8 UNITED STATES 00000 EDU015204D 48693287  2004 ERROR   
 9 UNITED STATES 00000 EDU015205D 48978555  2005 ERROR   
10 UNITED STATES 00000 EDU015206D 49140702  2006 ERROR   
# ℹ 520 more rows
…
res2

$f_county
# A tibble: 31,450 × 6
   area_name   STCOU Enrollment Value  year state
   <chr>       <chr> <chr>      <dbl> <dbl> <chr>
 1 Autauga, AL 01001 EDU010187D  6829  1987 AL   
 2 Autauga, AL 01001 EDU010188D  6900  1988 AL   
 3 Autauga, AL 01001 EDU010189D  6920  1989 AL   
 4 Autauga, AL 01001 EDU010190D  6847  1990 AL   
 5 Autauga, AL 01001 EDU010191D  7008  1991 AL   
 6 Autauga, AL 01001 EDU010192D  7137  1992 AL   
 7 Autauga, AL 01001 EDU010193D  7152  1993 AL   
 8 Autauga, AL 01001 EDU010194D  7381  1994 AL   
 9 Autauga, AL 01001 EDU010195D  7568  1995 AL   
10 Autauga, AL 01001 EDU010196D  7834  1996 AL   
# ℹ 31,440 more rows

$f_not_county
# A tibble: 530 × 6
   area_name     STCOU Enrollment    Value  year division
   <chr>         <chr> <chr>         <dbl> <dbl> <chr>   
 1 UNITED STATES 00000 EDU010187D 40024299  1987 ERROR   
 2 UNITED STATES 00000 EDU010188D 39967624  1988 ERROR   
 3 UNITED STATES 00000 EDU010189D 40317775  1989 ERROR   
 4 UNITED STATES 00000 EDU010190D 40737600  1990 ERROR   
 5 UNITED STATES 00000 EDU010191D 41385442  1991 ERROR   
 6 UNITED STATES 00000 EDU010192D 42088151  1992 ERROR   
 7 UNITED STATES 00000 EDU010193D 42724710  1993 ERROR   
 8 UNITED STATES 00000 EDU010194D 43369917  1994 ERROR   
 9 UNITED STATES 00000 EDU010195D 43993459  1995 ERROR   
10 UNITED STATES 00000 EDU010196D 44715737  1996 ERROR   
# ℹ 520 more rows
Creating a function with bind_rows() to combine files after applying the wrapper function.

combine_results <- function(result1,result2){
  
  df1 <- bind_rows(result1$f_county,
                   result2$f_county)
  df2 <- bind_rows(result1$f_not_county,
                   result2$f_not_county)
  return(list(f_county=df1,f_not_county=df2))
}

final_results <- combine_results(res1,res2)
final_results[[1]] #County

# A tibble: 62,900 × 6
   area_name   STCOU Enrollment Value  year state
   <chr>       <chr> <chr>      <dbl> <dbl> <chr>
 1 Autauga, AL 01001 EDU010197D  8099  1997 AL   
 2 Autauga, AL 01001 EDU010198D  8211  1998 AL   
 3 Autauga, AL 01001 EDU010199D  8489  1999 AL   
 4 Autauga, AL 01001 EDU010200D  8912  2000 AL   
 5 Autauga, AL 01001 EDU010201D  8626  2001 AL   
 6 Autauga, AL 01001 EDU010202D  8762  2002 AL   
 7 Autauga, AL 01001 EDU015203D  9105  2003 AL   
 8 Autauga, AL 01001 EDU015204D  9200  2004 AL   
 9 Autauga, AL 01001 EDU015205D  9559  2005 AL   
10 Autauga, AL 01001 EDU015206D  9652  2006 AL   
# ℹ 62,890 more rows

final_results[[2]]#State

# A tibble: 1,060 × 6
   area_name     STCOU Enrollment    Value  year division
   <chr>         <chr> <chr>         <dbl> <dbl> <chr>   
 1 UNITED STATES 00000 EDU010197D 44534459  1997 ERROR   
 2 UNITED STATES 00000 EDU010198D 46245814  1998 ERROR   
 3 UNITED STATES 00000 EDU010199D 46368903  1999 ERROR   
 4 UNITED STATES 00000 EDU010200D 46818690  2000 ERROR   
 5 UNITED STATES 00000 EDU010201D 47127066  2001 ERROR   
 6 UNITED STATES 00000 EDU010202D 47606570  2002 ERROR   
 7 UNITED STATES 00000 EDU015203D 48506317  2003 ERROR   
 8 UNITED STATES 00000 EDU015204D 48693287  2004 ERROR   
 9 UNITED STATES 00000 EDU015205D 48978555  2005 ERROR   
10 UNITED STATES 00000 EDU015206D 49140702  2006 ERROR   
# ℹ 1,050 more rows
…
Run data combining function to put these into one object

final_results_1 <- combine_results(res_a,res_b)
final_results_2 <- combine_results(res_c,res_d)

f_results <- combine_results(final_results_1,final_results_2)
f_results[[1]]

# A tibble: 125,800 × 6
   area_name   STCOU Enrollment Value  year state
   <chr>       <chr> <chr>      <dbl> <dbl> <chr>
 1 Autauga, AL 01001 PST015171D 25508  1971 AL   
 2 Autauga, AL 01001 PST015172D 27166  1972 AL   
 3 Autauga, AL 01001 PST015173D 28463  1973 AL   
 4 Autauga, AL 01001 PST015174D 29266  1974 AL   
 5 Autauga, AL 01001 PST015175D 29718  1975 AL   
 6 Autauga, AL 01001 PST015176D 29896  1976 AL   
 7 Autauga, AL 01001 PST015177D 30462  1977 AL   
 8 Autauga, AL 01001 PST015178D 30882  1978 AL   
 9 Autauga, AL 01001 PST015179D 32055  1979 AL   
10 Autauga, AL 01001 PST025181D 31985  1981 AL   
# ℹ 125,790 more rows

f_results[[2]]

# A tibble: 2,120 × 6
   area_name     STCOU Enrollment     Value  year division
   <chr>         <chr> <chr>          <dbl> <dbl> <chr>   
 1 UNITED STATES 00000 PST015171D 206827028  1971 ERROR   
 2 UNITED STATES 00000 PST015172D 209283904  1972 ERROR   
 3 UNITED STATES 00000 PST015173D 211357490  1973 ERROR   
 4 UNITED STATES 00000 PST015174D 213341552  1974 ERROR   
 5 UNITED STATES 00000 PST015175D 215465246  1975 ERROR   
 6 UNITED STATES 00000 PST015176D 217562728  1976 ERROR   
 7 UNITED STATES 00000 PST015177D 219759860  1977 ERROR   
 8 UNITED STATES 00000 PST015178D 222095080  1978 ERROR   
 9 UNITED STATES 00000 PST015179D 224567234  1979 ERROR   
10 UNITED STATES 00000 PST025181D 229466391  1981 ERROR   
# ℹ 2,110 more rows
…
